<?xml version="1.0" standalone="no"?>
<!DOCTYPE svg PUBLIC "-//W3C//DTD SVG 20010904//EN"
 "http://www.w3.org/TR/2001/REC-SVG-20010904/DTD/svg10.dtd">
<svg version="1.0" xmlns="http://www.w3.org/2000/svg"
 width="2000.000000pt" height="2000.000000pt" viewBox="0 0 2000.000000 2000.000000"
 preserveAspectRatio="xMidYMid meet">
<metadata>
Created by potrace 1.11, written by Peter Selinger 2001-2013
</metadata>
<g transform="translate(0.000000,2000.000000) scale(0.100000,-0.100000)"
fill="#000000" stroke="none">
<path d="M3357 19169 c-552 -49 -1074 -259 -1507 -605 -111 -89 -328 -306
-414 -414 -318 -398 -515 -857 -593 -1375 -17 -115 -18 -420 -18 -6775 0
-6366 1 -6660 18 -6775 78 -519 276 -977 593 -1375 86 -108 303 -325 414 -414
401 -321 847 -512 1385 -593 115 -17 400 -18 6765 -18 6365 0 6650 1 6765 18
538 81 970 266 1375 587 124 98 328 300 424 420 317 396 520 868 593 1380 17
119 18 444 18 6770 0 6326 -1 6651 -18 6770 -73 511 -274 980 -593 1380 -86
108 -303 325 -414 414 -390 312 -827 503 -1345 588 l-140 23 -6610 1 c-3635 1
-6649 -2 -6698 -7z m1419 -1550 c-1270 -423 -2310 -768 -2312 -766 -2 1 50 63
115 137 713 813 1689 1301 2776 1389 55 5 467 8 915 9 l815 0 -2309 -769z
m5939 -2244 c405 -21 878 -146 1240 -328 877 -439 1461 -1264 1600 -2260 16
-112 28 -287 44 -652 17 -351 -12 -757 -73 -1046 l-22 -108 20 -5 c12 -3 48
-6 82 -6 236 0 642 -68 859 -144 570 -197 973 -626 1130 -1201 93 -342 114
-624 116 -1595 1 -724 -10 -900 -86 -1285 -186 -943 -670 -1699 -1395 -2180
-472 -313 -1034 -500 -1705 -566 -164 -17 -4359 -25 -4725 -10 -289 12 -477
31 -689 67 -1484 252 -2418 1225 -2605 2714 -36 286 -44 600 -26 1045 4 116
22 1106 39 2200 34 2149 41 2411 71 2640 175 1336 967 2257 2210 2570 311 78
521 103 990 116 452 13 2706 48 2770 43 25 -2 95 -6 155 -9z"/>
<path d="M7885 13025 c-205 -38 -388 -137 -532 -288 -142 -149 -222 -311 -258
-521 -49 -288 44 -592 251 -815 157 -169 386 -283 619 -306 110 -11 2418 -43
2492 -34 227 25 443 134 600 302 186 199 274 440 260 715 -12 252 -107 464
-286 643 -124 123 -275 210 -441 253 -112 29 -285 36 -1370 51 -1210 18 -1241
18 -1335 0z"/>
<path d="M7715 8564 c-438 -54 -764 -336 -867 -751 -33 -131 -30 -332 5 -465
91 -344 359 -609 712 -706 l100 -27 2405 0 c1935 0 2418 3 2470 13 209 42 377
130 521 272 124 122 201 254 255 435 25 82 27 104 27 255 0 151 -2 173 -27
255 -111 370 -364 608 -746 703 -59 15 -288 17 -2445 18 -1309 1 -2393 0
-2410 -2z"/>
</g>
</svg>
